NFA a b c d
0 1 - - -
1 14 - - -
10 - 2 - -
11 - 8 - -
12 - 7 - -
13 - 16 - -
14 - - 5 12
15 - - - 13
<16 - - - -
<17 4 - - -
2 15 - - -
>3 10 9 0 12
<4 - 11 - -
<5 - 6 5 -
<6 - - 5 -
<7 - - - 12
8 10 17 0 12
9 4 - - -
